[
    {
        "title": "Summary",
        "type": "Summary",
        "data": ["Summary of the report point 1", "Summary of the report point 2"]
    },
    {
        "title": "Table",
        "type": "Table",
        "data": [
            {
                "label": "0-4",
                "columns": [
                    {
                        "label": "Aston",
                        "count": 7862,
                        "percent": 5.7802448259383157
                    },
                    {
                        "label": "VIC",
                        "count": 370846,
                        "percent": 6.265451554113997
                    },
                    {
                        "label": "Australia",
                        "count": 1463318,
                        "percent": 6.2654541758290971
                    }
                ]
            },
            {
                "label": "5-14",
                "columns": [
                    {
                        "label": "Aston",
                        "count": 15960,
                        "percent": 11.733999926478697
                    },
                    {
                        "label": "VIC",
                        "count": 709300,
                        "percent": 11.983639535907246
                    },
                    {
                        "label": "Australia",
                        "count": 2897936,
                        "percent": 12.408024238398948
                    }
                ]
            },
            {
                "label": "15-19",
                "columns": [
                    {
                        "label": "Aston",
                        "count": 8950,
                        "percent": 6.5801566003749583
                    },
                    {
                        "label": "VIC",
                        "count": 355976,
                        "percent": 6.0142225679319292
                    },
                    {
                        "label": "Australia",
                        "count": 1419813,
                        "percent": 6.0791798431690438
                    }
                ]
            },
            {
                "label": "20-24",
                "columns": [
                    {
                        "label": "Aston",
                        "count": 9255,
                        "percent": 6.8043965739072894
                    },
                    {
                        "label": "VIC",
                        "count": 412892,
                        "percent": 6.9758196746930974
                    },
                    {
                        "label": "Australia",
                        "count": 1562255,
                        "percent": 6.6890703958127258
                    }
                ]
            },
            {
                "label": "25-34",
                "columns": [
                    {
                        "label": "Aston",
                        "count": 17998,
                        "percent": 13.232364077491454
                    },
                    {
                        "label": "VIC",
                        "count": 887323,
                        "percent": 14.991342145664492
                    },
                    {
                        "label": "Australia",
                        "count": 3358674,
                        "percent": 14.380755268881144
                    }
                ]
            },
            {
                "label": "35-44",
                "columns": [
                    {
                        "label": "Aston",
                        "count": 18211,
                        "percent": 13.388964452450097
                    },
                    {
                        "label": "VIC",
                        "count": 804616,
                        "percent": 13.594005510818475
                    },
                    {
                        "label": "Australia",
                        "count": 3138069,
                        "percent": 13.436196042206712
                    }
                ]
            },
            {
                "label": "45-54",
                "columns": [
                    {
                        "label": "Aston",
                        "count": 19557,
                        "percent": 14.378561188104253
                    },
                    {
                        "label": "VIC",
                        "count": 779427,
                        "percent": 13.168436786343685
                    },
                    {
                        "label": "Australia",
                        "count": 3098222,
                        "percent": 13.265584081891685
                    }
                ]
            },
            {
                "label": "55-64",
                "columns": [
                    {
                        "label": "Aston",
                        "count": 17631,
                        "percent": 12.962540896224681
                    },
                    {
                        "label": "VIC",
                        "count": 676623,
                        "percent": 11.431560882143195
                    },
                    {
                        "label": "Australia",
                        "count": 2746652,
                        "percent": 11.760275102848009
                    }
                ]
            },
            {
                "label": "65-74",
                "columns": [
                    {
                        "label": "Aston",
                        "count": 11855,
                        "percent": 8.715950446641914
                    },
                    {
                        "label": "VIC",
                        "count": 509107,
                        "percent": 8.6013742749289861
                    },
                    {
                        "label": "Australia",
                        "count": 2071632,
                        "percent": 8.8700578856961947
                    }
                ]
            },
            {
                "label": "75-84",
                "columns": [
                    {
                        "label": "Aston",
                        "count": 6132,
                        "percent": 4.5083262875418155
                    },
                    {
                        "label": "VIC",
                        "count": 284850,
                        "percent": 4.8125471899100223
                    },
                    {
                        "label": "Australia",
                        "count": 1112115,
                        "percent": 4.7617165720316272
                    }
                ]
            },
            {
                "label": "85+",
                "columns": [
                    {
                        "label": "Aston",
                        "count": 2604,
                        "percent": 1.9144947248465243
                    },
                    {
                        "label": "VIC",
                        "count": 127943,
                        "percent": 2.1615998775448761
                    },
                    {
                        "label": "Australia",
                        "count": 486652,
                        "percent": 2.0836863932348142
                    }
                ]
            }
        ]
    }
]