[
    {
        "title": "Electorate",
        "type": "Table",
        "data": {
            "columns": [
                {
                    "parent": "Fadden",
                    "label": "%",
                    "format": "number"
                },
                {
                    "parent": "Fadden",
                    "label": "Number",
                    "format": "number"
                },
                {
                    "parent": "QLD",
                    "label": "%",
                    "format": "number"
                },
                {
                    "parent": "QLD",
                    "label": "Number",
                    "format": "number"
                },
                {
                    "parent": "Australia",
                    "label": "%",
                    "format": "number"
                },
                {
                    "parent": "Australia",
                    "label": "Number",
                    "format": "number"
                }
            ],
            "rows": [
                {
                    "label": "Activated",
                    "columnData": [
                        "15.354620565538679682600278134",
                        "16893",
                        "22.359006646511324015942123676",
                        "752868",
                        "21.710317491960259085493380819",
                        "3648342"
                    ]
                },
                {
                    "label": "Building",
                    "columnData": [
                        "11.078086512329688508348557976",
                        "12188",
                        "11.500187100184724309362730831",
                        "387232",
                        "9.223127937357323682986240829",
                        "1549914"
                    ]
                },
                {
                    "label": "Planning",
                    "columnData": [
                        "40.365755005953517119770221507",
                        "44410",
                        "18.939587429243461887989356078",
                        "637730",
                        "23.165855442596053496158145789",
                        "3892940"
                    ]
                },
                {
                    "label": "Built (but not ready to connect)",
                    "columnData": [
                        "1.0879938919641152891773239168",
                        "1197",
                        "2.5133197512458496427277425026",
                        "84628",
                        "2.6130273735013519475506952066",
                        "439110"
                    ]
                },
                {
                    "label": "Ready to connect",
                    "columnData": [
                        "32.113544024213999400103618466",
                        "35331",
                        "44.687899072814640143978046912",
                        "1504722",
                        "43.287671754585011787811537357",
                        "7274340"
                    ]
                }
            ]
        }
    }
]